phy_rx/senales_DEMUX_L2.vcd
$date
	Tue May 25 23:22:52 2021
$end
$version
	Icarus Verilog
$end
$timescale
	100ps
$end
$scope module Banco_pruebas $end
$var wire 1 ! valid_11 $end
$var wire 1 " valid_000 $end
$var wire 1 # valid_00 $end
$var wire 8 $ data_11 [7:0] $end
$var wire 8 % data_000 [7:0] $end
$var wire 8 & data_00 [7:0] $end
$var wire 1 ' clk_4f $end
$var wire 1 ( clk_2f $end
$scope module DEMUX_L2 $end
$var wire 1 " valid_000 $end
$var wire 8 ) data_000 [7:0] $end
$var wire 1 ( clk_2f $end
$var reg 8 * a [7:0] $end
$var reg 8 + b [7:0] $end
$var reg 8 , data_00 [7:0] $end
$var reg 8 - data_11 [7:0] $end
$var reg 1 # valid_00 $end
$var reg 1 ! valid_11 $end
$var reg 1 . validt_00 $end
$var reg 1 / validt_11 $end
$upscope $end
$scope module probador $end
$var wire 8 0 data_00 [7:0] $end
$var wire 8 1 data_11 [7:0] $end
$var wire 1 # valid_00 $end
$var wire 1 ! valid_11 $end
$var reg 1 ( clk_2f $end
$var reg 1 ' clk_4f $end
$var reg 8 2 data_000 [7:0] $end
$var reg 1 " valid_000 $end
$upscope $end
$upscope $end
$enddefinitions $end
#0
$dumpvars
b11111111 2
bx 1
bx 0
x/
1.
bx -
bx ,
bx +
b11111111 *
b11111111 )
1(
1'
bx &
b11111111 %
bx $
x#
1"
x!
$end
#50
0'
#100
b10111011 %
b10111011 )
b10111011 2
1/
b10111011 +
1'
0(
#150
0'
#200
b11101010 %
b11101010 )
b11101010 2
1!
b10111011 $
b10111011 -
b10111011 1
1#
b11111111 &
b11111111 ,
b11111111 0
b11101010 *
1'
1(
#250
0'
#300
b11001100 %
b11001100 )
b11001100 2
b11001100 +
1'
0(
#350
0'
#400
b10101 %
b10101 )
b10101 2
b11001100 $
b11001100 -
b11001100 1
b11101010 &
b11101010 ,
b11101010 0
b10101 *
1'
1(
#450
0'
#500
b10110 %
b10110 )
b10110 2
b10110 +
1'
0(
#550
0'
#600
b11111111 %
b11111111 )
b11111111 2
b10110 $
b10110 -
b10110 1
b10101 &
b10101 ,
b10101 0
b11111111 *
1'
1(
#650
0'
#700
b10111011 %
b10111011 )
b10111011 2
b10111011 +
1'
0(
#750
0'
#800
b11101010 %
b11101010 )
b11101010 2
b10111011 $
b10111011 -
b10111011 1
b11111111 &
b11111111 ,
b11111111 0
b11101010 *
1'
1(
#850
0'
#900
b11001100 %
b11001100 )
b11001100 2
b11001100 +
1'
0(
#950
0'
#1000
b10101 %
b10101 )
b10101 2
b11001100 $
b11001100 -
b11001100 1
b11101010 &
b11101010 ,
b11101010 0
b10101 *
1'
1(
#1050
0'
#1100
b10110 %
b10110 )
b10110 2
b10110 +
1'
0(
