phy_rx/serial_paralelo_rx/phy_rx.vcd
$date
	Tue Jun  1 17:09:40 2021
$end
$version
	Icarus Verilog
$end
$timescale
	100ps
$end
$scope module BancoPruebas $end
$scope module probador_ $end
$var reg 1 ! clk_32f $end
$var reg 1 " clk_4f $end
$var reg 8 # data [7:0] $end
$var reg 1 $ data_out_tx_0 $end
$upscope $end
$scope module serial_paralelo_ $end
$var wire 1 % clk_32f $end
$var wire 1 & clk_4f $end
$var wire 1 ' data_out_tx $end
$var reg 1 ( ACTV $end
$var reg 3 ) BCcounter [2:0] $end
$var reg 3 * counter [2:0] $end
$var reg 8 + q1 [7:0] $end
$var reg 8 , serial_in [7:0] $end
$var reg 8 - sp_out [7:0] $end
$var reg 1 . valid_outFF $end
$var reg 1 / valid_out_sp $end
$upscope $end
$upscope $end
$enddefinitions $end
#0
$dumpvars
x/
x.
bx -
bx ,
bx +
bx *
bx )
x(
z'
z&
z%
1$
b0 #
1"
1!
$end
#500
0!
#1000
0$
1!
#1500
0!
#2000
1$
1!
#2500
0!
0"
#3000
1!
#3500
0!
#4000
1!
#4500
0!
#5000
1!
1"
#5500
0!
#6000
0$
1!
#6500
0!
#7000
1!
#7500
0!
0"
#8000
1$
b10111100 #
1!
#8500
0!
#9000
0$
1!
#9500
0!
#10000
1$
1!
1"
#10500
0!
#11000
1!
#11500
0!
#12000
1!
#12500
0!
0"
#13000
1!
#13500
0!
#14000
0$
1!
#14500
0!
#15000
1!
1"
#15500
0!
#16000
1$
1!
#16500
0!
#17000
0$
1!
#17500
0!
0"
#18000
1$
1!
#18500
0!
#19000
1!
#19500
0!
#20000
1!
1"
#20500
0!
#21000
1!
#21500
0!
#22000
0$
1!
#22500
0!
0"
#23000
1!
#23500
0!
#24000
1$
1!
#24500
0!
#25000
0$
1!
1"
#25500
0!
#26000
1$
1!
#26500
0!
#27000
1!
#27500
0!
0"
#28000
1!
#28500
0!
#29000
1!
#29500
0!
#30000
0$
1!
1"
#30500
0!
#31000
1!
#31500
0!
#32000
1!
#32500
0!
0"
#33000
1$
1!
#33500
0!
#34000
0$
1!
#34500
0!
#35000
1!
1"
#35500
0!
#36000
1!
#36500
0!
#37000
1!
#37500
0!
0"
#38000
1$
1!
#38500
0!
#39000
1!
#39500
0!
#40000
b1000011 #
1!
1"
#40500
0!
#41000
1!
#41500
0!
#42000
1!
#42500
0!
0"
#43000
0$
1!
#43500
0!
#44000
1$
1!
#44500
0!
#45000
1!
1"
#45500
0!
#46000
1!
#46500
0!
#47000
0$
1!
#47500
0!
0"
#48000
1$
b11101110 #
1!
#48500
0!
#49000
1!
#49500
0!
#50000
1!
1"
#50500
0!
#51000
1!
#51500
0!
#52000
1!
#52500
0!
0"
#53000
1!
#53500
0!
#54000
1!
#54500
0!
#55000
1!
1"
#55500
0!
#56000
b11111111 #
1!
#56500
0!
#57000
0$
1!
#57500
0!
0"
#58000
1$
1!
#58500
0!
#59000
0$
1!
#59500
0!
#60000
1$
1!
1"
#60500
0!
#61000
0$
1!
#61500
0!
#62000
1$
1!
#62500
0!
0"
#63000
0$
1!
#63500
0!
#64000
1$
b10101010 #
1!
#64500
0!
#65000
0$
1!
1"
#65500
0!
#66000
1$
1!
#66500
0!
#67000
1!
#67500
0!
0"
#68000
1!
#68500
0!
#69000
1!
#69500
0!
#70000
0$
1!
1"
#70500
0!
#71000
1!
#71500
0!
#72000
1$
b10111100 #
1!
#72500
0!
0"
#73000
0$
1!
#73500
0!
#74000
1$
1!
#74500
0!
#75000
1!
1"
#75500
0!
#76000
1!
#76500
0!
#77000
1!
#77500
0!
0"
#78000
0$
1!
#78500
0!
#79000
1!
#79500
0!
#80000
1$
1!
1"
#80500
0!
#81000
0$
1!
#81500
0!
#82000
1$
1!
#82500
0!
0"
#83000
1!
#83500
0!
#84000
1!
#84500
0!
#85000
1!
1"
#85500
0!
#86000
0$
1!
#86500
0!
#87000
1!
#87500
0!
0"
#88000
1$
1!
#88500
0!
#89000
0$
1!
#89500
0!
#90000
1$
1!
1"
#90500
0!
#91000
1!
#91500
0!
#92000
1!
#92500
0!
0"
#93000
1!
#93500
0!
#94000
0$
1!
#94500
0!
#95000
1!
1"
#95500
0!
#96000
1$
1!
#96500
0!
#97000
0$
1!
#97500
0!
0"
#98000
1$
1!
#98500
0!
#99000
0$
1!
#99500
0!
#100000
1$
1!
1"
#100500
0!
#101000
0$
1!
#101500
0!
#102000
1$
1!
#102500
0!
0"
#103000
0$
1!
#103500
0!
#104000
b10101010 #
1!
#104500
0!
#105000
1$
1!
1"
#105500
0!
#106000
0$
1!
#106500
0!
#107000
1!
#107500
0!
0"
#108000
1!
#108500
0!
#109000
1!
#109500
0!
#110000
1$
1!
1"
#110500
0!
#111000
1!
#111500
0!
#112000
b1000011 #
1!
#112500
0!
0"
#113000
1!
#113500
0!
#114000
1!
#114500
0!
#115000
0$
1!
1"
#115500
0!
#116000
1$
1!
#116500
0!
#117000
1!
#117500
0!
0"
#118000
1!
#118500
0!
#119000
0$
1!
#119500
0!
#120000
1$
b11101110 #
1!
1"
#120500
0!
#121000
1!
#121500
0!
#122000
1!
#122500
0!
0"
#123000
1!
#123500
0!
#124000
1!
#124500
0!
#125000
1!
1"
#125500
0!
#126000
1!
#126500
0!
#127000
1!
#127500
0!
0"
#128000
b11111111 #
1!
#128500
0!
#129000
0$
1!
#129500
0!
#130000
1$
1!
1"
#130500
0!
#131000
1!
#131500
0!
#132000
1!
#132500
0!
0"
#133000
1!
#133500
0!
#134000
0$
1!
#134500
0!
#135000
1!
1"
#135500
0!
#136000
1$
b10111100 #
1!
#136500
0!
#137000
0$
1!
#137500
0!
0"
#138000
1$
1!
#138500
0!
#139000
1!
#139500
0!
#140000
1!
1"
#140500
0!
#141000
1!
#141500
0!
#142000
0$
1!
#142500
0!
0"
#143000
1!
#143500
0!
#144000
1$
1!
#144500
0!
#145000
0$
1!
1"
#145500
0!
#146000
1$
1!
#146500
0!
#147000
1!
#147500
0!
0"
#148000
1!
#148500
0!
#149000
1!
#149500
0!
#150000
0$
1!
1"
#150500
0!
#151000
1!
#151500
0!
#152000
1$
1!
#152500
0!
0"
#153000
0$
1!
#153500
0!
#154000
1$
1!
#154500
0!
#155000
1!
1"
#155500
0!
#156000
1!
#156500
0!
#157000
1!
#157500
0!
0"
#158000
0$
1!
#158500
0!
#159000
1!
#159500
0!
#160000
1$
1!
1"
#160500
0!
#161000
1!
#161500
0!
#162000
1!
#162500
0!
0"
#163000
1!
#163500
0!
#164000
1!
#164500
0!
#165000
1!
1"
#165500
0!
#166000
1!
#166500
0!
#167000
1!
#167500
0!
0"
#168000
b11111111 #
1!
